%YAML 1.1
%TAG !u! tag:unity3d.com,2011:
--- !u!114 &11400000
MonoBehaviour:
  m_ObjectHideFlags: 0
  m_CorrespondingSourceObject: {fileID: 0}
  m_PrefabInstance: {fileID: 0}
  m_PrefabAsset: {fileID: 0}
  m_GameObject: {fileID: 0}
  m_Enabled: 1
  m_EditorHideFlags: 0
  m_Script: {fileID: 11500000, guid: 3e941f90c35381945909910bacfb90df, type: 3}
  m_Name: ColdDamage2
  m_EditorClassIdentifier: 
  Name: Freezing
  Description: Increase Cold Damage
  Range: {x: 10, y: 20}
