%YAML 1.1
%TAG !u! tag:unity3d.com,2011:
--- !u!114 &11400000
MonoBehaviour:
  m_ObjectHideFlags: 0
  m_CorrespondingSourceObject: {fileID: 0}
  m_PrefabInstance: {fileID: 0}
  m_PrefabAsset: {fileID: 0}
  m_GameObject: {fileID: 0}
  m_Enabled: 1
  m_EditorHideFlags: 0
  m_Script: {fileID: 11500000, guid: 616205d116d4b2d4e922096d4512a718, type: 3}
  m_Name: FullHeal
  m_EditorClassIdentifier: 
  description: Fully Healed!
  duration: 1
  eternal: 0
  groundParticles: {fileID: 1687968178385362047, guid: 45d50ea0d3ef0c94091702ed14a111ba, type: 3}
  dmgPerTick: -10000
  frequency: 0.1
  maxTicks: 1
