%YAML 1.1
%TAG !u! tag:unity3d.com,2011:
--- !u!114 &11400000
MonoBehaviour:
  m_ObjectHideFlags: 0
  m_CorrespondingSourceObject: {fileID: 0}
  m_PrefabInstance: {fileID: 0}
  m_PrefabAsset: {fileID: 0}
  m_GameObject: {fileID: 0}
  m_Enabled: 1
  m_EditorHideFlags: 0
  m_Script: {fileID: 11500000, guid: 2c80ba43d4577994eb0914c0b60543dd, type: 3}
  m_Name: SmallLifeSteal
  m_EditorClassIdentifier: 
  description: LifeSteal UP!
  duration: 1
  eternal: 1
  groundParticles: {fileID: 1687968178385362047, guid: 45d50ea0d3ef0c94091702ed14a111ba, type: 3}
  effect: 5
  value: 1
