%YAML 1.1
%TAG !u! tag:unity3d.com,2011:
--- !u!114 &11400000
MonoBehaviour:
  m_ObjectHideFlags: 0
  m_CorrespondingSourceObject: {fileID: 0}
  m_PrefabInstance: {fileID: 0}
  m_PrefabAsset: {fileID: 0}
  m_GameObject: {fileID: 0}
  m_Enabled: 1
  m_EditorHideFlags: 0
  m_Script: {fileID: 11500000, guid: 26b63aad88886854cb1e1e27bee73744, type: 3}
  m_Name: FireStaff
  m_EditorClassIdentifier: 
  description: 
  damage: 9
  attackSpeed: 0.8
  attackThing: {fileID: 741681257336158569, guid: 0929574bed5e8d1458fba7e81b7fd0e3, type: 3}
  mesh: {fileID: 2741544479531014238, guid: 549809c39b9e84c4daa0284dac8ae481, type: 3}
  idealRange: 12
  retreatRange: 4
  swingOffset: 1
