%YAML 1.1
%TAG !u! tag:unity3d.com,2011:
--- !u!114 &11400000
MonoBehaviour:
  m_ObjectHideFlags: 0
  m_CorrespondingSourceObject: {fileID: 0}
  m_PrefabInstance: {fileID: 0}
  m_PrefabAsset: {fileID: 0}
  m_GameObject: {fileID: 0}
  m_Enabled: 1
  m_EditorHideFlags: 0
  m_Script: {fileID: 11500000, guid: 868a104b01eb47e4f91cadde0f3502ec, type: 3}
  m_Name: RareEnemyLootTable
  m_EditorClassIdentifier: 
  TableOfLoot:
  - Loot: {fileID: 11400000, guid: a04d2422885ce3843891834c5c316da7, type: 2}
    DropChance: 20
    MaxPossibleDrops: 1
  - Loot: {fileID: 11400000, guid: cd85f084986650342846da094c783f22, type: 2}
    DropChance: 20
    MaxPossibleDrops: 1
  - Loot: {fileID: 11400000, guid: 4d093e1bed03a274a8e807aa3acb815c, type: 2}
    DropChance: 20
    MaxPossibleDrops: 1
  - Loot: {fileID: 11400000, guid: 1a54285be6bf4c14fa4172315fd1e557, type: 2}
    DropChance: 20
    MaxPossibleDrops: 1
  - Loot: {fileID: 11400000, guid: ba3cff607d3038f46a58362bd4e59651, type: 2}
    DropChance: 8
    MaxPossibleDrops: 1
  - Loot: {fileID: 11400000, guid: e6f09bb2062d15e41ac1548d7ea649fc, type: 2}
    DropChance: 20
    MaxPossibleDrops: 1
  - Loot: {fileID: 11400000, guid: a0e6d2bce7c95df49a1aee0dd8273de8, type: 2}
    DropChance: 20
    MaxPossibleDrops: 1
  - Loot: {fileID: 11400000, guid: 4cd4ea0791a556340baf5aaedbb2b4eb, type: 2}
    DropChance: 20
    MaxPossibleDrops: 1
  - Loot: {fileID: 11400000, guid: 9d43f59ba3f7fb342929159d69637acf, type: 2}
    DropChance: 20
    MaxPossibleDrops: 1
