%YAML 1.1
%TAG !u! tag:unity3d.com,2011:
--- !u!1 &4883933917400372441
GameObject:
  m_ObjectHideFlags: 0
  m_CorrespondingSourceObject: {fileID: 0}
  m_PrefabInstance: {fileID: 0}
  m_PrefabAsset: {fileID: 0}
  serializedVersion: 6
  m_Component:
  - component: {fileID: 4883933917400372423}
  - component: {fileID: 4883933917400372422}
  m_Layer: 0
  m_Name: TeleportToAtk
  m_TagString: Untagged
  m_Icon: {fileID: 0}
  m_NavMeshLayer: 0
  m_StaticEditorFlags: 0
  m_IsActive: 1
--- !u!4 &4883933917400372423
Transform:
  m_ObjectHideFlags: 0
  m_CorrespondingSourceObject: {fileID: 0}
  m_PrefabInstance: {fileID: 0}
  m_PrefabAsset: {fileID: 0}
  m_GameObject: {fileID: 4883933917400372441}
  m_LocalRotation: {x: 0, y: 0, z: 0, w: 1}
  m_LocalPosition: {x: 0, y: 0, z: -13.064856}
  m_LocalScale: {x: 1, y: 1, z: 1}
  m_Children: []
  m_Father: {fileID: 0}
  m_RootOrder: 0
  m_LocalEulerAnglesHint: {x: 0, y: 0, z: 0}
--- !u!114 &4883933917400372422
MonoBehaviour:
  m_ObjectHideFlags: 0
  m_CorrespondingSourceObject: {fileID: 0}
  m_PrefabInstance: {fileID: 0}
  m_PrefabAsset: {fileID: 0}
  m_GameObject: {fileID: 4883933917400372441}
  m_Enabled: 1
  m_EditorHideFlags: 0
  m_Script: {fileID: 11500000, guid: c767e57d5a765f14a8ed338a17fc105b, type: 3}
  m_Name: 
  m_EditorClassIdentifier: 
  lifeTime: 1
  status: {fileID: 0}
  timeLessAttack: 0
  endOnHit: 1
  spawnOnCaster: 0
  shouldFollowPlayer: 0
  damage: 0
  secondaryAttack: {fileID: 3704391488840863085, guid: 13b68f0dd2bb69e4f95f143168000cef, type: 3}
  teleportParticles: {fileID: 2433089112179897272, guid: 3e0051075f6b24647a7ebe30ddd21c7f, type: 3}
  slamParticles: {fileID: 5428151684325590383, guid: 0493a41078417dd45b9b46ff0b046ef3, type: 3}
