%YAML 1.1
%TAG !u! tag:unity3d.com,2011:
--- !u!114 &11400000
MonoBehaviour:
  m_ObjectHideFlags: 0
  m_CorrespondingSourceObject: {fileID: 0}
  m_PrefabInstance: {fileID: 0}
  m_PrefabAsset: {fileID: 0}
  m_GameObject: {fileID: 0}
  m_Enabled: 1
  m_EditorHideFlags: 0
  m_Script: {fileID: 11500000, guid: 45bf845b084bd4b46b5bfb4c5837a926, type: 3}
  m_Name: BasicCrate
  m_EditorClassIdentifier: 
  loots:
  - Loot: {fileID: 11400000, guid: 05fe0fb4f262dbb41bf0dcff0b47b046, type: 2}
    DropChance: 100
    MaxPossibleDrops: 10
  - Loot: {fileID: 11400000, guid: 05fe0fb4f262dbb41bf0dcff0b47b046, type: 2}
    DropChance: 5
    MaxPossibleDrops: 200
