%YAML 1.1
%TAG !u! tag:unity3d.com,2011:
--- !u!114 &11400000
MonoBehaviour:
  m_ObjectHideFlags: 0
  m_CorrespondingSourceObject: {fileID: 0}
  m_PrefabInstance: {fileID: 0}
  m_PrefabAsset: {fileID: 0}
  m_GameObject: {fileID: 0}
  m_Enabled: 1
  m_EditorHideFlags: 0
  m_Script: {fileID: 11500000, guid: 085515d35f25f8c41bafa86b1d07eb1c, type: 3}
  m_Name: PhysicalDamage2
  m_EditorClassIdentifier: 
  Name: the Champion
  Description: Increase Physical Damage
  Range: {x: 20, y: 30}
