%YAML 1.1
%TAG !u! tag:unity3d.com,2011:
--- !u!114 &11400000
MonoBehaviour:
  m_ObjectHideFlags: 0
  m_CorrespondingSourceObject: {fileID: 0}
  m_PrefabInstance: {fileID: 0}
  m_PrefabAsset: {fileID: 0}
  m_GameObject: {fileID: 0}
  m_Enabled: 1
  m_EditorHideFlags: 0
  m_Script: {fileID: 11500000, guid: 5775558517a9071418591b3a731815ec, type: 3}
  m_Name: Boots
  m_EditorClassIdentifier: 
  GearStats:
  - DamageRange: {x: 0, y: 0}
    ArmourRange: {x: 1, y: 10}
    PossiblePrefixes:
    - {fileID: 11400000, guid: 82204c18900561d4786ca3594ba2c05d, type: 2}
    - {fileID: 11400000, guid: 0198a75c661284b4b9e8987187b3a077, type: 2}
    - {fileID: 11400000, guid: ee5af417199e3914ab7b8688b9570445, type: 2}
    PossibleSuffixes:
    - {fileID: 11400000, guid: 59e72779441add848a8383cdc7d79e08, type: 2}
    - {fileID: 11400000, guid: 182b20fa96c9d4b43b197c80f121f034, type: 2}
    - {fileID: 11400000, guid: d5475c84331162a4cb2c0a457a7e6b89, type: 2}
    - {fileID: 11400000, guid: 9fa3e8c9ea57966428aea15a1eadd350, type: 2}
  - DamageRange: {x: 0, y: 0}
    ArmourRange: {x: 1, y: 20}
    PossiblePrefixes:
    - {fileID: 11400000, guid: 82204c18900561d4786ca3594ba2c05d, type: 2}
    - {fileID: 11400000, guid: 0198a75c661284b4b9e8987187b3a077, type: 2}
    - {fileID: 11400000, guid: faa4de37c47b42f42952ee93129cbf25, type: 2}
    PossibleSuffixes:
    - {fileID: 11400000, guid: 59e72779441add848a8383cdc7d79e08, type: 2}
    - {fileID: 11400000, guid: 182b20fa96c9d4b43b197c80f121f034, type: 2}
    - {fileID: 11400000, guid: d5475c84331162a4cb2c0a457a7e6b89, type: 2}
    - {fileID: 11400000, guid: 9fa3e8c9ea57966428aea15a1eadd350, type: 2}
  - DamageRange: {x: 0, y: 0}
    ArmourRange: {x: 1, y: 30}
    PossiblePrefixes:
    - {fileID: 11400000, guid: 82204c18900561d4786ca3594ba2c05d, type: 2}
    - {fileID: 11400000, guid: 0198a75c661284b4b9e8987187b3a077, type: 2}
    - {fileID: 11400000, guid: faa4de37c47b42f42952ee93129cbf25, type: 2}
    PossibleSuffixes:
    - {fileID: 11400000, guid: 9fa3e8c9ea57966428aea15a1eadd350, type: 2}
    - {fileID: 11400000, guid: d5475c84331162a4cb2c0a457a7e6b89, type: 2}
    - {fileID: 11400000, guid: 182b20fa96c9d4b43b197c80f121f034, type: 2}
    - {fileID: 11400000, guid: 59e72779441add848a8383cdc7d79e08, type: 2}
  - DamageRange: {x: 0, y: 0}
    ArmourRange: {x: 1, y: 40}
    PossiblePrefixes:
    - {fileID: 11400000, guid: 82204c18900561d4786ca3594ba2c05d, type: 2}
    - {fileID: 11400000, guid: c67e3113a03643f439375bd71dd801cd, type: 2}
    - {fileID: 11400000, guid: 0198a75c661284b4b9e8987187b3a077, type: 2}
    - {fileID: 11400000, guid: ff93418952de41e448e7575db0b89363, type: 2}
    - {fileID: 11400000, guid: ee5af417199e3914ab7b8688b9570445, type: 2}
    - {fileID: 11400000, guid: 5d7df5a63af25cd46ac03e878168e834, type: 2}
    PossibleSuffixes:
    - {fileID: 11400000, guid: 59e72779441add848a8383cdc7d79e08, type: 2}
    - {fileID: 11400000, guid: 182b20fa96c9d4b43b197c80f121f034, type: 2}
    - {fileID: 11400000, guid: d5475c84331162a4cb2c0a457a7e6b89, type: 2}
    - {fileID: 11400000, guid: 9fa3e8c9ea57966428aea15a1eadd350, type: 2}
  - DamageRange: {x: 0, y: 0}
    ArmourRange: {x: 1, y: 50}
    PossiblePrefixes:
    - {fileID: 11400000, guid: 82204c18900561d4786ca3594ba2c05d, type: 2}
    - {fileID: 11400000, guid: c67e3113a03643f439375bd71dd801cd, type: 2}
    - {fileID: 11400000, guid: 0198a75c661284b4b9e8987187b3a077, type: 2}
    - {fileID: 11400000, guid: ff93418952de41e448e7575db0b89363, type: 2}
    - {fileID: 11400000, guid: ee5af417199e3914ab7b8688b9570445, type: 2}
    - {fileID: 11400000, guid: 5d7df5a63af25cd46ac03e878168e834, type: 2}
    PossibleSuffixes:
    - {fileID: 11400000, guid: 59e72779441add848a8383cdc7d79e08, type: 2}
    - {fileID: 11400000, guid: 182b20fa96c9d4b43b197c80f121f034, type: 2}
    - {fileID: 11400000, guid: d5475c84331162a4cb2c0a457a7e6b89, type: 2}
    - {fileID: 11400000, guid: 9fa3e8c9ea57966428aea15a1eadd350, type: 2}
  - DamageRange: {x: 0, y: 0}
    ArmourRange: {x: 1, y: 60}
    PossiblePrefixes:
    - {fileID: 11400000, guid: 5d7df5a63af25cd46ac03e878168e834, type: 2}
    - {fileID: 11400000, guid: ee5af417199e3914ab7b8688b9570445, type: 2}
    - {fileID: 11400000, guid: ff93418952de41e448e7575db0b89363, type: 2}
    - {fileID: 11400000, guid: 0198a75c661284b4b9e8987187b3a077, type: 2}
    - {fileID: 11400000, guid: c67e3113a03643f439375bd71dd801cd, type: 2}
    - {fileID: 11400000, guid: 82204c18900561d4786ca3594ba2c05d, type: 2}
    PossibleSuffixes:
    - {fileID: 11400000, guid: 59e72779441add848a8383cdc7d79e08, type: 2}
    - {fileID: 11400000, guid: 182b20fa96c9d4b43b197c80f121f034, type: 2}
    - {fileID: 11400000, guid: d5475c84331162a4cb2c0a457a7e6b89, type: 2}
    - {fileID: 11400000, guid: 9fa3e8c9ea57966428aea15a1eadd350, type: 2}
