%YAML 1.1
%TAG !u! tag:unity3d.com,2011:
--- !u!114 &11400000
MonoBehaviour:
  m_ObjectHideFlags: 0
  m_CorrespondingSourceObject: {fileID: 0}
  m_PrefabInstance: {fileID: 0}
  m_PrefabAsset: {fileID: 0}
  m_GameObject: {fileID: 0}
  m_Enabled: 1
  m_EditorHideFlags: 0
  m_Script: {fileID: 11500000, guid: ae8cce936771c1c40a302542bc55ff3e, type: 3}
  m_Name: Dungeon
  m_EditorClassIdentifier: 
  Room: {fileID: 11400000, guid: d854e040fc8bfe04db17e3eaea2f9c0d, type: 2}
  CurrentRoomCoordinates: {x: 50, y: 50}
  currentRoomPrefab: {fileID: 0}
  NumberOfRegularRooms: 1000
  NumberOfTreasureRooms: 0
  NumberOfShops: 0
  NumberOfBossRooms: 20
  NumberOfNPCRooms: 0
  MaxWidth: 100
  MaxHeight: 100
