%YAML 1.1
%TAG !u! tag:unity3d.com,2011:
--- !u!1001 &6279360948964162228
PrefabInstance:
  m_ObjectHideFlags: 0
  serializedVersion: 2
  m_Modification:
    m_TransformParent: {fileID: 0}
    m_Modifications:
    - target: {fileID: 2674043997145193900, guid: 6ca237cbfed12f1409ec951c8bdc80ff, type: 3}
      propertyPath: m_LocalPosition.x
      value: 0
      objectReference: {fileID: 0}
    - target: {fileID: 2674043997145193900, guid: 6ca237cbfed12f1409ec951c8bdc80ff, type: 3}
      propertyPath: m_LocalPosition.y
      value: 0
      objectReference: {fileID: 0}
    - target: {fileID: 2674043997145193900, guid: 6ca237cbfed12f1409ec951c8bdc80ff, type: 3}
      propertyPath: m_LocalPosition.z
      value: 0
      objectReference: {fileID: 0}
    - target: {fileID: 2674043997145193900, guid: 6ca237cbfed12f1409ec951c8bdc80ff, type: 3}
      propertyPath: m_LocalRotation.x
      value: -0.7071068
      objectReference: {fileID: 0}
    - target: {fileID: 2674043997145193900, guid: 6ca237cbfed12f1409ec951c8bdc80ff, type: 3}
      propertyPath: m_LocalRotation.y
      value: 0
      objectReference: {fileID: 0}
    - target: {fileID: 2674043997145193900, guid: 6ca237cbfed12f1409ec951c8bdc80ff, type: 3}
      propertyPath: m_LocalRotation.z
      value: 0
      objectReference: {fileID: 0}
    - target: {fileID: 2674043997145193900, guid: 6ca237cbfed12f1409ec951c8bdc80ff, type: 3}
      propertyPath: m_LocalRotation.w
      value: 0.7071068
      objectReference: {fileID: 0}
    - target: {fileID: 2674043997145193900, guid: 6ca237cbfed12f1409ec951c8bdc80ff, type: 3}
      propertyPath: m_RootOrder
      value: 0
      objectReference: {fileID: 0}
    - target: {fileID: 2674043997145193900, guid: 6ca237cbfed12f1409ec951c8bdc80ff, type: 3}
      propertyPath: m_LocalEulerAnglesHint.x
      value: -90
      objectReference: {fileID: 0}
    - target: {fileID: 2674043997145193900, guid: 6ca237cbfed12f1409ec951c8bdc80ff, type: 3}
      propertyPath: m_LocalEulerAnglesHint.y
      value: 0
      objectReference: {fileID: 0}
    - target: {fileID: 2674043997145193900, guid: 6ca237cbfed12f1409ec951c8bdc80ff, type: 3}
      propertyPath: m_LocalEulerAnglesHint.z
      value: 0
      objectReference: {fileID: 0}
    - target: {fileID: 2674043997145193901, guid: 6ca237cbfed12f1409ec951c8bdc80ff, type: 3}
      propertyPath: m_Name
      value: Cyan Swirl
      objectReference: {fileID: 0}
    - target: {fileID: 2674043997145193902, guid: 6ca237cbfed12f1409ec951c8bdc80ff, type: 3}
      propertyPath: InitialModule.startColor.maxColor.r
      value: 0.7122642
      objectReference: {fileID: 0}
    - target: {fileID: 2674043997145193902, guid: 6ca237cbfed12f1409ec951c8bdc80ff, type: 3}
      propertyPath: InitialModule.startColor.maxColor.g
      value: 0.98050606
      objectReference: {fileID: 0}
    - target: {fileID: 2674043997145193902, guid: 6ca237cbfed12f1409ec951c8bdc80ff, type: 3}
      propertyPath: InitialModule.startColor.maxColor.b
      value: 1
      objectReference: {fileID: 0}
    m_RemovedComponents: []
  m_SourcePrefab: {fileID: 100100000, guid: 6ca237cbfed12f1409ec951c8bdc80ff, type: 3}
